…
``` r
iris <- as_tibble(iris)
iris
```

    ## # A tibble: 150 x 5
    ##    Sepal.Length Sepal.Width Petal.Length Petal.Width Species
    ##           <dbl>       <dbl>        <dbl>       <dbl> <fct>  
    ##  1          5.1         3.5          1.4         0.2 setosa 
    ##  2          4.9         3            1.4         0.2 setosa 
    ##  3          4.7         3.2          1.3         0.2 setosa 
    ##  4          4.6         3.1          1.5         0.2 setosa 
    ##  5          5           3.6          1.4         0.2 setosa 
    ##  6          5.4         3.9          1.7         0.4 setosa 
    ##  7          4.6         3.4          1.4         0.3 setosa 
    ##  8          5           3.4          1.5         0.2 setosa 
    ##  9          4.4         2.9          1.4         0.2 setosa 
    ## 10          4.9         3.1          1.5         0.1 setosa 
    ## # … with 140 more rows

## Question 1

``` r
# Rename each variable so that it is all lower-case and uses an underscore _ instead of a period . in the name (the recommended coding style in the tidyverse style guide). Print the resulting table

question1_table <- rename (iris, sepal_length = Sepal.Length, sepal_width = Sepal.Width, petal_length = Petal.Length, petal_width = Petal.Width, species = Species) 
question1_table 
```

    ## # A tibble: 150 x 5
    ##    sepal_length sepal_width petal_length petal_width species
    ##           <dbl>       <dbl>        <dbl>       <dbl> <fct>  
    ##  1          5.1         3.5          1.4         0.2 setosa 
    ##  2          4.9         3            1.4         0.2 setosa 
    ##  3          4.7         3.2          1.3         0.2 setosa 
    ##  4          4.6         3.1          1.5         0.2 setosa 
    ##  5          5           3.6          1.4         0.2 setosa 
    ##  6          5.4         3.9          1.7         0.4 setosa 
    ##  7          4.6         3.4          1.4         0.3 setosa 
    ##  8          5           3.4          1.5         0.2 setosa 
    ##  9          4.4         2.9          1.4         0.2 setosa 
    ## 10          4.9         3.1          1.5         0.1 setosa 
    ## # … with 140 more rows

## Question 2

``` r
# Convert the four numerical variables from cm to mm by multiplying by 10. Print the resulting table.

question2_table <- mutate(question1_table,sepal_length_cm = sepal_length/10, sepal_width_cm = sepal_width/10, petal_length_cm = petal_length/10, petal_width_cm = petal_width/10 ) 

question2_table 
```

    ## # A tibble: 150 x 9
    ##    sepal_length sepal_width petal_length petal_width species sepal_length_cm
    ##           <dbl>       <dbl>        <dbl>       <dbl> <fct>             <dbl>
    ##  1          5.1         3.5          1.4         0.2 setosa             0.51
    ##  2          4.9         3            1.4         0.2 setosa             0.49
    ##  3          4.7         3.2          1.3         0.2 setosa             0.47
    ##  4          4.6         3.1          1.5         0.2 setosa             0.46
    ##  5          5           3.6          1.4         0.2 setosa             0.5 
    ##  6          5.4         3.9          1.7         0.4 setosa             0.54
    ##  7          4.6         3.4          1.4         0.3 setosa             0.46
    ##  8          5           3.4          1.5         0.2 setosa             0.5 
    ##  9          4.4         2.9          1.4         0.2 setosa             0.44
    ## 10          4.9         3.1          1.5         0.1 setosa             0.49
    ## # … with 140 more rows, and 3 more variables: sepal_width_cm <dbl>,
    ## #   petal_length_cm <dbl>, petal_width_cm <dbl>

## Question 3

``` r
# Calculate sepal area and petal area (area is equal to length multiplied by width). Print a table with only the variables sepal area, petal area, and species.

t3 <- mutate(question2_table, sepal_area = sepal_length * sepal_width,petal_area = petal_length * petal_width ) 

question3_table <- select(t3, sepal_area, petal_area, species) 

question3_table  
```

    ## # A tibble: 150 x 3
    ##    sepal_area petal_area species
    ##         <dbl>      <dbl> <fct>  
    ##  1       17.8      0.280 setosa 
    ##  2       14.7      0.280 setosa 
    ##  3       15.0      0.26  setosa 
    ##  4       14.3      0.3   setosa 
    ##  5       18        0.280 setosa 
    ##  6       21.1      0.68  setosa 
    ##  7       15.6      0.42  setosa 
    ##  8       17        0.3   setosa 
    ##  9       12.8      0.280 setosa 
    ## 10       15.2      0.15  setosa 
    ## # … with 140 more rows
…
## Question 6

``` r
# Visualize the relationship between petal width and species using a strip plot.

tab_6 <- select(question1_table, species , petal_width)

tab_6
```

    ## # A tibble: 150 x 2
    ##    species petal_width
    ##    <fct>         <dbl>
    ##  1 setosa          0.2
    ##  2 setosa          0.2
    ##  3 setosa          0.2
    ##  4 setosa          0.2
    ##  5 setosa          0.2
    ##  6 setosa          0.4
    ##  7 setosa          0.3
    ##  8 setosa          0.2
    ##  9 setosa          0.2
    ## 10 setosa          0.1
    ## # … with 140 more rows
…
